e6cdf1927c67f3752b82bd9eedab9b3714cf777e  nsswitch.conf
a9f38cd25cf7a22305e855ab6b54a241948546e3  rwtab.d/logrotate
a5790dcf339a12beb3e3893f548d002ff2af27d8  rwtab.d/named
c8c10c38a350bb94ef4a5921e0a95321a32d534a  rwtab.d/sssd
7d7e947f9cbd9c9adfcba4be8475639da5ee21b4  sudoers
be492fd5c55fa9900213af968099ffeee30707a5  sudo-ldap.conf
